<svg xmlns="http://www.w3.org/2000/svg" width="20" height="14" viewBox="0 0 20 14">
    <path fill="none" fill-rule="evenodd" stroke="#fff" stroke-linecap="round" stroke-width="2" d="M17 11l-7-7-7 7"/>
</svg>
