<svg xmlns="http://www.w3.org/2000/svg" width="22" height="26" viewBox="0 0 22 26">
    <g fill="none" fill-rule="evenodd" transform="rotate(-30 12.062 7.232)">
        <circle cx="8.914" cy="8.914" r="7.914" stroke="#41334B" stroke-width="2"/>
        <rect width="1.486" height="8.914" x="8.171" y="17.086" fill="#41334B" rx=".743"/>
    </g>
</svg>
