<svg xmlns="http://www.w3.org/2000/svg" width="26" height="26" viewBox="0 0 26 26">
    <path fill="#FF9800" fill-rule="nonzero" d="M25.582 11.249c.364-.382.498-.829.371-1.225-.127-.397-.498-.682-1.019-.782l-6.223-1.188c-.565-.103-1.31-.641-1.593-1.15L13.428.247a.483.483 0 0 0-.842-.001L8.888 6.901c-.285.512-1.03 1.05-1.598 1.154L1.057 9.242c-.512.1-.88.384-1.009.78-.129.395.003.841.362 1.226l4.331 4.59c.395.417.68 1.293.613 1.87l-.787 6.228c-.072.547.104.88.265 1.062.325.372.884.448 1.443.187l5.74-2.669c.503-.235 1.47-.235 1.975 0l5.737 2.669c.225.105.446.158.655.158.314 0 .594-.122.789-.344.16-.183.337-.515.266-1.06l-.787-6.232c-.075-.572.212-1.446.614-1.87l4.318-4.588zm-5.017 3.927c-.6.63-.981 1.798-.87z"/>
</svg>
