<svg xmlns="http://www.w3.org/2000/svg" xmlns:xlink="http://www.w3.org/1999/xlink" width="50" height="50" viewBox="0 0 50 50">
    <defs>
        <circle id="a" cx="24" cy="24" r="24"/>
    </defs>
    <g fill="none" fill-rule="evenodd" transform="translate(1 1)">
        <mask id="b" fill="#fff">
            <use xlink:href="#a"/>
        </mask>
        <use fill="#8F7FB4" xlink:href="#a"/>
        <g mask="url(#b)">
            <path fill="#D1E2F4" d="M3 48l1.702-12.406 19.424-7.037 18.985 7.037L45.252 48z"/>
            <path fill="#EFC7A5" d="M16.036 17.34l-.645.205c-.515.257-.782.515-.799.772-.026.386.696 3.164.954 3.859.172.463.412.677.722.643l1.083.129.232-3.165-1.547-2.444zM31.843 17.34l.644.205c.516.257.782.515.8.772.025.386-.697 3.164-.955 3.859-.172.463-.412.677-.722.643l-1.082.129-.232-3.165 1.547-2.444z"/>
            <path fill="#47362B" d="M20.948 35.914l2.162 3.157L21.625 48h4.976l-1.772-8.929 2.475-3.157-2.943-2.123-2.345.803z"/>
            <path fill="#E3EFFB" d="M17.583 39.4l6.155-3.95h.983l5.949 3.95-1.19-8.6H18.746z"/>
            <path fill="#ECC29E" d="M17.957 25.191l.618 6.69 5.59 3.78c3.348-3.013 5.022-4.554 5.022-4.622 0-.068.12-2.017.36-5.848h-11.59z"/>
            <path fill="#CAA684" d="M19.078 27.06c1.692 3.238 2.949 5.047 3.771 5.428.286.133.844.182 1.129.182.26 0 .92-.07 1.18-.182.827-.357 2.041-2.166 3.642-5.427h-9.722z"/>
            <path fill="#ECC29E" d="M24.378 30.8c1.027-.069 1.714-.233 2.062-.491 3.098-2.304 4.54-5.56 4.8-8.664.403-4.797.787-13.654-6.921-13.654-7.709 0-7.122 9.221-7.087 14.055.026 3.569 2.273 6.02 4.774 8.263.365.327 1.156.491 2.372.491z"/>
            <path fill="#FFF" d="M23.95 28.183c.963 0 1.832-.499 2.607-1.496h-5.235c.788.997 1.664 1.496 2.627 1.496z"/>
            <path fill="#402311" d="M30.952 21.826l1.364-4.418.9-1.757-.205-1.137.206.698c.497-5.34-1.647-8.604-6.434-9.792-4.786-1.189-8.466.146-11.04 4.005l.49-.156c-.84 1.413-1.338 2.455-1.493 3.127-.154.671-.189 1.188-.103 1.55l.747 3.617 1.775 4.263.206-4.263c.23-1.249.444-2.093.643-2.532.2-.44.56-.861 1.081-1.266l.695.75 1.544-3.67v3.437l3.937-3.126-.54 2.04 3.911-1.214-.386 2.3 1.699-.84-.18 1.667.643-.827.54 1.705v5.84z"/>
        </g>
    </g>
</svg>
