<?xml version="1.0" encoding="utf-8"?>
<!-- Generator: Adobe Illustrator 21.1.0, SVG Export Plug-In . SVG Version: 6.00 Build 0)  -->
<svg version="1.1" id="Layer_1" xmlns="http://www.w3.org/2000/svg" xmlns:xlink="http://www.w3.org/1999/xlink" x="0px" y="0px"
	 viewBox="0 0 32 32" style="enable-background:new 0 0 32 32;" xml:space="preserve">
<style type="text/css">
	.st0{fill:none;stroke:#000000;stroke-linecap:round;}
</style>
<title>icons/token_loadout</title>
<desc>Created with Sketch.</desc>
<g id="icons" transform="translate(-1075.000000, -117.000000)">
	<g id="Group-12" transform="translate(1076.000000, 119.000000)">
		<polyline id="Path-2-Copy" class="st0" points="22,7 15,0 8,7 		"/>
		<path id="Line-7" class="st0" d="M15,0.5V18"/>
		<path id="Rectangle-24_1_" class="st0" d="M0.5,14.5V24c0,1.9,1.6,3.5,3.5,3.5h22c1.9,0,3.5-1.6,3.5-3.5v-9.5"/>
	</g>
</g>
</svg>
