<svg xmlns="http://www.w3.org/2000/svg" width="14" height="14" viewBox="0 0 14 14">
    <g fill="none" fill-rule="evenodd" stroke="#FFF" stroke-linecap="round" stroke-width="2">
        <path d="M12 12L7 7l-5 5M2 2l5 5 5-5"/>
    </g>
</svg>
