<svg xmlns="http://www.w3.org/2000/svg" width="20" height="24" viewBox="0 0 20 24">
    <g fill="none" fill-rule="evenodd" transform="translate(1 1)">
        <rect width="17" height="21" x=".5" y=".5" stroke="#3E3048" rx="2"/>
        <rect width="12" height="1" x="3" y="6" fill="#3E3048" rx=".5"/>
        <rect width="12" height="1" x="3" y="10" fill="#3E3048" rx=".5"/>
        <rect width="4" height="1" x="3" y="14" fill="#3E3048" rx=".5"/>
        <g stroke="#3E3048" transform="translate(8 12)">
            <circle cx="4" cy="4" r="3.5"/>
            <path d="M4 1.627V4l1 1"/>
        </g>
    </g>
</svg>
