<svg xmlns="http://www.w3.org/2000/svg" xmlns:xlink="http://www.w3.org/1999/xlink" width="26" height="18" viewBox="0 0 26 18">
    <defs>
        <circle id="a" cx="16" cy="7" r="2"/>
        <circle id="b" cx="5" cy="2" r="2"/>
        <circle id="c" cx="5" cy="2" r="2"/>
    </defs>
    <g fill="none" fill-rule="evenodd">
        <path fill="#000" d="M3 8h20v2H3z"/>
        <g transform="translate(3 2)">
            <use fill="#F5F5F5" xlink:href="#a"/>
            <circle cx="16" cy="7" r="1.5" stroke="#000"/>
        </g>
        <path fill="#000" d="M3 13h20v2H3z"/>
        <g transform="translate(3 12)">
            <use fill="#F5F5F5" xlink:href="#b"/>
            <circle cx="5" cy="2" r="1.5" stroke="#000"/>
        </g>
        <g>
            <path fill="#000" d="M3 3h20v2H3z"/>
            <g transform="translate(3 2)">
                <use fill="#F5F5F5" xlink:href="#c"/>
                <circle cx="5" cy="2" r="1.5" stroke="#000"/>
            </g>
        </g>
    </g>
</svg>
