<svg xmlns="http://www.w3.org/2000/svg" xmlns:xlink="http://www.w3.org/1999/xlink" width="42" height="42" viewBox="0 0 42 42">
    <defs>
        <path id="a" d="M20.69 8.415v8.414H0V0h20.69v8.415z"/>
    </defs>
    <g fill="none" fill-rule="evenodd" transform="translate(1 1)">
        <g transform="translate(9.689 11.267)">
            <mask id="b" fill="#fff">
                <use xlink:href="#a"/>
            </mask>
            <path fill="#000" d="M10.263 5.207c-1.031-.055-2.443-.325-4.072-.975C3.8 3.202 2.226 1.686 1.466.765a4.284 4.284 0 0 0-.434 3.087c.38 1.571 1.466 2.384 1.737 2.546-.217 0-.597 0-.977-.108-.434-.108-.76-.27-.977-.433 0 .325 0 1.787 1.14 3.033.869.92 1.9 1.137 2.28 1.246-.217.054-.542.162-.923.162-.434 0-.814-.054-1.086-.108.109.38.543 1.517 1.738 2.275.923.65 1.9.704 2.28.704-.542.433-1.357.921-2.388 1.3A8.12 8.12 0 0 1 0 14.902c.923.596 2.715 1.517 5.159 1.842 2.226.271 4.018-.162 5.05-.487 1.14-.38 3.421-1.3 5.322-3.467 3.095-3.467 3.095-7.638 3.04-8.613a6.885 6.885 0 0 0 1.087-.866c.489-.488.814-.921 1.032-1.3-.38.162-.815.325-1.358.487a3.66 3.66 0 0 1-.977.163c.271-.163.597-.38.923-.759.543-.595.76-1.191.923-1.57-.435.216-.923.487-1.52.704-.435.162-.815.27-1.141.325-.163-.217-1.466-1.463-3.367-1.354-1.575.108-3.04 1.137-3.692 2.654a3.6 3.6 0 0 0-.272 1.3c-.109.541-.054.975.054 1.246" mask="url(#b)"/>
        </g>
        <circle cx="20" cy="20" r="19.5" stroke="#000"/>
    </g>
</svg>
