<svg xmlns="http://www.w3.org/2000/svg" xmlns:xlink="http://www.w3.org/1999/xlink" width="22" height="24" viewBox="0 0 22 24">
    <defs>
        <rect id="a" width="3" height="7" x="13" rx="1.5"/>
        <rect id="b" width="3" height="7" x="4" rx="1.5"/>
    </defs>
    <g fill="none" fill-rule="evenodd" transform="translate(1 1)">
        <rect width="19" height="19" x=".5" y="3.5" stroke="#D8D8D8" rx="2"/>
        <use fill="#FFF" xlink:href="#a"/>
        <rect width="2" height="6" x="13.5" y=".5" stroke="#D8D8D8" rx="1"/>
        <rect width="3" height="3" x="13" y="9" fill="#D8D8D8" rx=".5"/>
        <rect width="3" height="3" x="13" y="13" fill="#D8D8D8" rx=".5"/>
        <rect width="3" height="3" x="13" y="17" fill="#D8D8D8" rx=".5"/>
        <g fill="#D8D8D8" transform="translate(8.5 9)">
            <rect width="3" height="3" rx=".5"/>
            <rect width="3" height="3" y="4" rx=".5"/>
            <rect width="3" height="3" y="8" rx=".5"/>
        </g>
        <rect width="3" height="3" x="4" y="9" fill="#D8D8D8" rx=".5"/>
        <rect width="3" height="3" x="4" y="13" fill="#D8D8D8" rx=".5"/>
        <rect width="3" height="3" x="4" y="17" fill="#D8D8D8" rx=".5"/>
        <g>
            <use fill="#FFF" xlink:href="#b"/>
            <rect width="2" height="6" x="4.5" y=".5" stroke="#D8D8D8" rx="1"/>
        </g>
    </g>
</svg>
