<svg xmlns="http://www.w3.org/2000/svg" width="20" height="20" viewBox="0 0 20 20">
    <defs>
        <linearGradient id="a" x1="5.859%" x2="75.064%" y1="19.737%" y2="60.554%">
            <stop offset="0%" stop-color="#0A357E"/>
            <stop offset="100%" stop-color="#E72E92"/>
        </linearGradient>
    </defs>
    <g fill="none" fill-rule="evenodd">
        <circle cx="9" cy="9" r="9" fill="url(#a)" transform="translate(1 1)"/>
        <text fill="#FFF" font-family="OpenSans-Semibold, Open Sans" font-size="14" font-weight="500" transform="translate(1 1)">
            <tspan x="6.328" y="14">?</tspan>
        </text>
    </g>
</svg>
