<svg width="17" height="16" viewBox="0 0 17 16" version="1.1" xmlns="http://www.w3.org/2000/svg" xmlns:xlink="http://www.w3.org/1999/xlink">
<title>x</title>
<desc>Created using Figma</desc>
<g id="Canvas" transform="translate(338 276)">
<g id="x">
<g id="Rectangle">
<use xlink:href="#path0_fill" transform="matrix(0.707107 -0.707107 0.707107 0.707107 -338 -262.069)"/>
</g>
<g id="Rectangle">
<use xlink:href="#path0_fill" transform="matrix(0.707107 0.707107 -0.707107 0.707107 -335.771 -276)"/>
</g>
</g>
</g>
<defs>
<path id="path0_fill" d="M 0 0L 19.7011 0L 19.7011 2.5L 0 2.5L 0 0Z"/>
</defs>
</svg>
